<?xml version="1.0" encoding="utf-8"?>
<!-- Generator: Adobe Illustrator 23.0.3, SVG Export Plug-In . SVG Version: 6.00 Build 0)  -->
<svg version="1.1" id="Слой_1" xmlns="http://www.w3.org/2000/svg" xmlns:xlink="http://www.w3.org/1999/xlink" x="0px" y="0px"
	 viewBox="0 0 100 100" style="enable-background:new 0 0 100 100;" xml:space="preserve">
<style type="text/css">
	.st0{fill:#715199;}
	.st1{fill:#FFFFFF;}
</style>
<g>
	<path class="st0" d="M25,100h50c13.8,0,25-11.2,25-25V25c0-13.8-11.2-25-25-25H25C11.2,0,0,11.2,0,25v50C0,88.8,11.2,100,25,100z"
		/>
	<path id="viber_1_" class="st1" d="M71.5,26.1c-2.3-2-5-3.2-7.9-3.9c-7.3-1.9-14.7-2.4-22.1-1.4c-3.8,0.5-7.4,1.5-10.8,3.4
		c-3.9,2.2-6.7,5.4-7.9,9.8c-0.9,3.2-1.3,6.4-1.4,9.6c-0.2,4.8-0.1,9.6,1.1,14.2c1.4,5.4,4.5,9.4,9.8,11.5c0.6,0.2,1.1,0.5,1.7,0.8
		c0.5,0.2,0.7,0.6,0.7,1.1c0,3.7,0,7.5,0,11.4c1.4-1.3,2.4-2.3,3-3.1c2.1-2.4,4.1-4.3,6.2-6.6c1.1-1.1,0.6-1.1,2.3-1.1
		c2,0,5.2,0.1,7.2,0c3.8-0.3,7.6-0.8,11.3-1.9c4.7-1.4,8.4-3.9,10.3-8.6c0.5-1.3,1-2.5,1.3-3.8c1.8-7.5,1.6-15.1,0.1-22.6
		C75.8,31.6,74.3,28.5,71.5,26.1z M48.3,30.7c0-0.7,0.5-1,1.1-1c5.8,0.3,10.2,2,13.5,6.5c2,2.7,3,6.2,3.1,9.6c0,0.5,0,1,0,1.5
		c0,0.5-0.3,1-0.9,1c-0.6,0-0.9-0.3-1-1c-0.2-2.5-0.6-4.8-1.6-7.1c-1.8-4.4-5.3-6.8-9.8-7.9c-1.2-0.3-2.4-0.6-3.6-0.7
		C48.7,31.5,48.2,31.4,48.3,30.7z M54.1,36.9c-1.2-0.4-2.4-0.7-3.6-0.9c-0.6-0.1-1-0.4-0.9-1.1c0.1-0.7,0.5-0.9,1.2-0.9
		c4,0.4,7.2,1.9,9.4,5.4c1,1.6,1.6,4,1.5,5.7c-0.1,1.2-0.3,1.6-1,1.5c-1,0-0.9-0.9-1-1.5c-0.1-1-0.3-1.9-0.6-2.8
		C58.4,39.6,56.7,37.8,54.1,36.9z M57.5,43.7c0,0.3,0,0.6-0.1,0.8c-0.1,0.5-0.4,0.7-0.9,0.7c-0.5,0-0.8-0.3-0.9-0.7
		c-0.1-0.3-0.1-0.6-0.2-0.9c-0.3-1.6-1.2-2.7-2.9-3.1c-0.2-0.1-0.4-0.1-0.6-0.1c-0.5-0.1-1.1-0.2-1.2-0.9c0-0.6,0.5-1,1.3-1
		c0.6,0,1.5,0.2,2,0.5C56.3,39.9,57.3,41.4,57.5,43.7z M66.1,60.9c-1.1,2.5-3,4.2-5.7,5c-1,0.3-1.9,0-2.8-0.3
		c-12.3-5.2-21.2-13.9-26.2-26.3c-0.4-0.9-0.6-1.8-0.5-2.7c0-3.2,2.8-6.2,5.9-6.3c0.9,0,1.6,0.2,2.2,0.8c2.2,2,3.9,4.4,5.2,7.1
		c0.7,1.5,0.4,2.5-0.8,3.5c-0.2,0.2-0.4,0.3-0.6,0.5c-1.7,1.2-2,2.4-1.2,4.3c1.3,3.1,3.4,5.6,6.2,7.4c1.1,0.7,2.2,1.3,3.4,1.7
		c1.1,0.3,2,0,2.8-0.9c0.1-0.1,0.2-0.2,0.2-0.3c1.6-2.2,3.3-2.6,5.6-1.1c2,1.2,3.8,2.6,5.6,4.1C66.4,58.3,66.7,59.5,66.1,60.9z"/>
</g>
</svg>
