<?xml version="1.0" encoding="utf-8"?>
<!-- Generator: Adobe Illustrator 23.0.3, SVG Export Plug-In . SVG Version: 6.00 Build 0)  -->
<svg version="1.1" id="Слой_1" xmlns="http://www.w3.org/2000/svg" xmlns:xlink="http://www.w3.org/1999/xlink" x="0px" y="0px"
	 viewBox="0 0 100 100" style="enable-background:new 0 0 100 100;" xml:space="preserve">
<style type="text/css">
	.st0{fill:#6BA84D;}
	.st1{fill-rule:evenodd;clip-rule:evenodd;fill:#FFFFFF;}
</style>
<g>
	<path class="st0" d="M25,100h50c13.8,0,25-11.2,25-25V25c0-13.8-11.2-25-25-25H25C11.2,0,0,11.2,0,25v50C0,88.8,11.2,100,25,100z"
		/>
	<g id="whatsapp_2_">
		<g>
			<path class="st1" d="M50.5,19.5c-16.4,0-29.7,13.3-29.7,29.7c0,5.6,1.6,10.9,4.3,15.3l-5.4,15.9l16.4-5.3
				c4.3,2.4,9.1,3.7,14.3,3.7c16.4,0,29.7-13.3,29.7-29.7C80.2,32.8,66.9,19.5,50.5,19.5z M50.5,73.9c-5,0-9.7-1.5-13.6-4.1l-9.5,3
				l3.1-9.2c-3-4.1-4.7-9.1-4.7-14.5c0-13.6,11.1-24.7,24.7-24.7c13.6,0,24.7,11.1,24.7,24.7C75.3,62.8,64.2,73.9,50.5,73.9z
				 M64.5,56c-0.7-0.4-4.4-2.4-5.1-2.7c-0.7-0.3-1.2-0.4-1.7,0.3c-0.5,0.7-2.1,2.4-2.5,2.9c-0.5,0.5-0.9,0.5-1.7,0.1
				c-0.7-0.4-3.2-1.3-6-4c-2.2-2.1-3.6-4.6-4-5.4c-0.4-0.8,0-1.2,0.4-1.5c0.4-0.3,0.8-0.9,1.2-1.3c0.4-0.4,0.5-0.7,0.8-1.2
				c0.3-0.5,0.2-0.9,0-1.3c-0.2-0.4-1.6-4.2-2.1-5.7c-0.6-1.5-1.2-1.3-1.7-1.3c-0.4,0-0.9-0.1-1.5-0.1c-0.5,0-1.3,0.1-2.1,0.9
				c-0.7,0.7-2.7,2.5-2.9,6.2c-0.1,3.7,2.4,7.4,2.8,8c0.4,0.5,4.9,8.6,12.5,11.9c7.6,3.3,7.6,2.3,9,2.2c1.4-0.1,4.6-1.7,5.2-3.4
				c0.7-1.7,0.8-3.3,0.6-3.6C65.7,56.6,65.2,56.4,64.5,56z"/>
		</g>
	</g>
</g>
</svg>
